^C:\USERS\RO_AD\DESKTOP\ALGF\LABORATOR9.10\TEMA_LABORATOR1\TEMA_LABORATOR1\DEBUG\3PUNCTE_VECTORI_PRB43.OBJ
C:\USERS\RO_AD\DESKTOP\ALGF\LABORATOR9.10\TEMA_LABORATOR1\DEBUG\TEMA_LABORATOR1.EXE
C:\USERS\RO_AD\DESKTOP\ALGF\LABORATOR9.10\TEMA_LABORATOR1\DEBUG\TEMA_LABORATOR1.ILK
C:\USERS\RO_AD\DESKTOP\ALGF\LABORATOR9.10\TEMA_LABORATOR1\DEBUG\TEMA_LABORATOR1.PDB
