^C:\USERS\RO_AD\DESKTOP\ALGF\LABORATOR27.11(DIVIDEETIMPERA)\LABORATOR27.11\LABORATOR27.11\DEBUG\2PUNCTE_PRB1.OBJ
C:\USERS\RO_AD\DESKTOP\ALGF\LABORATOR27.11(DIVIDEETIMPERA)\LABORATOR27.11\DEBUG\LABORATOR27.11.ILK
C:\USERS\RO_AD\DESKTOP\ALGF\LABORATOR27.11(DIVIDEETIMPERA)\LABORATOR27.11\DEBUG\LABORATOR27.11.EXE
C:\USERS\RO_AD\DESKTOP\ALGF\LABORATOR27.11(DIVIDEETIMPERA)\LABORATOR27.11\DEBUG\LABORATOR27.11.PDB
