^C:\USERS\RO_AD\DESKTOP\ALGF\SEMINAR16.10\SEMINAR16.10\DEBUG\PRB3.OBJ
/OUT:"C:\USERS\RO_AD\DESKTOP\ALGF\SEMINAR16.10\DEBUG\SEMINAR16.10.EXE" /INCREMENTAL /NOLOGO KERNEL32.LIB USER32.LIB GDI32.LIB WINSPOOL.LIB COMDLG32.LIB ADVAPI32.LIB SHELL32.LIB OLE32.LIB OLEAUT32.LIB UUID.LIB ODBC32.LIB ODBCCP32.LIB /MANIFEST /MANIFESTUAC:"level='asInvoker' uiAccess='false'" /manifest:embed /DEBUG:FASTLINK /PDB:"C:\USERS\RO_AD\DESKTOP\ALGF\SEMINAR16.10\DEBUG\SEMINAR16.10.PDB" /TLBID:1 /DYNAMICBASE /NXCOMPAT /IMPLIB:"C:\USERS\RO_AD\DESKTOP\ALGF\SEMINAR16.10\DEBUG\SEMINAR16.10.LIB" /MACHINE:X86 DEBUG\PRB3.OBJ
^C:\USERS\RO_AD\DESKTOP\ALGF\SEMINAR10.16\SEMINAR16.10\DEBUG\PRB2.OBJ
/OUT:"C:\USERS\RO_AD\DESKTOP\ALGF\SEMINAR10.16\DEBUG\SEMINAR16.10.EXE" /INCREMENTAL /NOLOGO KERNEL32.LIB USER32.LIB GDI32.LIB WINSPOOL.LIB COMDLG32.LIB ADVAPI32.LIB SHELL32.LIB OLE32.LIB OLEAUT32.LIB UUID.LIB ODBC32.LIB ODBCCP32.LIB /MANIFEST /MANIFESTUAC:"level='asInvoker' uiAccess='false'" /manifest:embed /DEBUG:FASTLINK /PDB:"C:\USERS\RO_AD\DESKTOP\ALGF\SEMINAR10.16\DEBUG\SEMINAR16.10.PDB" /TLBID:1 /DYNAMICBASE /NXCOMPAT /IMPLIB:"C:\USERS\RO_AD\DESKTOP\ALGF\SEMINAR10.16\DEBUG\SEMINAR16.10.LIB" /MACHINE:X86 DEBUG\PRB2.OBJ
