^C:\USERS\RO_AD\DESKTOP\ALGF\LABORATOR23.10\LABORATOR23.10\LABORATOR23.10\DEBUG\1PUNCT_PRB3.OBJ
C:\USERS\RO_AD\DESKTOP\ALGF\LABORATOR23.10\LABORATOR23.10\DEBUG\LABORATOR23.10.EXE
C:\USERS\RO_AD\DESKTOP\ALGF\LABORATOR23.10\LABORATOR23.10\DEBUG\LABORATOR23.10.ILK
C:\USERS\RO_AD\DESKTOP\ALGF\LABORATOR23.10\LABORATOR23.10\DEBUG\LABORATOR23.10.PDB
