^C:\USERS\RO_AD\DESKTOP\PROIECT2\PROIECT2\SOURCE.CPP
C:\USERS\RO_AD\DESKTOP\PROIECT2\PROIECT2\DEBUG\VC141.PDB
C:\USERS\RO_AD\DESKTOP\PROIECT2\PROIECT2\DEBUG\VC141.IDB
C:\USERS\RO_AD\DESKTOP\PROIECT2\PROIECT2\DEBUG\SOURCE.OBJ
