^C:\USERS\RO_AD\DESKTOP\ALGF\LABORATOR12.4(GREEDY)\LABORATOR12.4(1)\LABORATOR12.4\PRB3(CLIENTI).CPP
C:\USERS\RO_AD\DESKTOP\ALGF\LABORATOR12.4(GREEDY)\LABORATOR12.4(1)\LABORATOR12.4\DEBUG\VC141.PDB
C:\USERS\RO_AD\DESKTOP\ALGF\LABORATOR12.4(GREEDY)\LABORATOR12.4(1)\LABORATOR12.4\DEBUG\VC141.IDB
C:\USERS\RO_AD\DESKTOP\ALGF\LABORATOR12.4(GREEDY)\LABORATOR12.4(1)\LABORATOR12.4\DEBUG\PRB3(CLIENTI).OBJ
