^C:\USERS\RO_AD\DESKTOP\1DIVIDEDBY2APPROXIMATEMEDIAN\1DIVIDEDBY2APPROXIMATEMEDIAN\SOURCE.CPP
C:\USERS\RO_AD\DESKTOP\1DIVIDEDBY2APPROXIMATEMEDIAN\1DIVIDEDBY2APPROXIMATEMEDIAN\DEBUG\VC141.PDB
C:\USERS\RO_AD\DESKTOP\1DIVIDEDBY2APPROXIMATEMEDIAN\1DIVIDEDBY2APPROXIMATEMEDIAN\DEBUG\VC141.IDB
C:\USERS\RO_AD\DESKTOP\1DIVIDEDBY2APPROXIMATEMEDIAN\1DIVIDEDBY2APPROXIMATEMEDIAN\DEBUG\SOURCE.OBJ
