^C:\USERS\RO_AD\DESKTOP\ALGF\LABORATOR12.4(GREEDY)\LABORATOR12.4(2)\LABORATORGREEDY\LABORATORGREEDY\3PUNCTE_PRB5.CPP
C:\USERS\RO_AD\DESKTOP\ALGF\LABORATOR12.4(GREEDY)\LABORATOR12.4(2)\LABORATORGREEDY\LABORATORGREEDY\DEBUG\VC141.PDB
C:\USERS\RO_AD\DESKTOP\ALGF\LABORATOR12.4(GREEDY)\LABORATOR12.4(2)\LABORATORGREEDY\LABORATORGREEDY\DEBUG\VC141.IDB
C:\USERS\RO_AD\DESKTOP\ALGF\LABORATOR12.4(GREEDY)\LABORATOR12.4(2)\LABORATORGREEDY\LABORATORGREEDY\DEBUG\3PUNCTE_PRB5.OBJ
